^E:\JCCC\SPRING 2018\CS 250 - DATA STRUCTURES IN C++\LAB-EXCEPTION-HANDLING\EXCEPTION LAB\EXCEPTION LAB\DEBUG\MAIN.OBJ
E:\JCCC\SPRING 2018\CS 250 - DATA STRUCTURES IN C++\LAB-EXCEPTION-HANDLING\EXCEPTION LAB\DEBUG\EXCEPTION LAB.EXE
E:\JCCC\SPRING 2018\CS 250 - DATA STRUCTURES IN C++\LAB-EXCEPTION-HANDLING\EXCEPTION LAB\DEBUG\EXCEPTION LAB.ILK
E:\JCCC\SPRING 2018\CS 250 - DATA STRUCTURES IN C++\LAB-EXCEPTION-HANDLING\EXCEPTION LAB\DEBUG\EXCEPTION LAB.PDB
