^E:\JCCC\SPRING 2018\CS 250 - DATA STRUCTURES IN C++\ALGORITHM EFFICIENCY LAB\ALGORITHM EFFICIENCY LAB\DEBUG\MAIN.OBJ
E:\JCCC\SPRING 2018\CS 250 - DATA STRUCTURES IN C++\ALGORITHM EFFICIENCY LAB\DEBUG\ALGORITHM EFFICIENCY LAB.EXE
E:\JCCC\SPRING 2018\CS 250 - DATA STRUCTURES IN C++\ALGORITHM EFFICIENCY LAB\DEBUG\ALGORITHM EFFICIENCY LAB.ILK
E:\JCCC\SPRING 2018\CS 250 - DATA STRUCTURES IN C++\ALGORITHM EFFICIENCY LAB\DEBUG\ALGORITHM EFFICIENCY LAB.PDB
