^E:\JCCC\SPRING 2018\CS 250 - DATA STRUCTURES IN C++\LAB-RECURSION-INTRO\LAB-RECURSION-INTRO\PROGRAM_MAIN.CPP
E:\JCCC\SPRING 2018\CS 250 - DATA STRUCTURES IN C++\LAB-RECURSION-INTRO\RECURSIVVE LAB PROJECT\RECURSIVVE LAB PROJECT\DEBUG\VC141.PDB
E:\JCCC\SPRING 2018\CS 250 - DATA STRUCTURES IN C++\LAB-RECURSION-INTRO\RECURSIVVE LAB PROJECT\RECURSIVVE LAB PROJECT\DEBUG\VC141.IDB
E:\JCCC\SPRING 2018\CS 250 - DATA STRUCTURES IN C++\LAB-RECURSION-INTRO\RECURSIVVE LAB PROJECT\RECURSIVVE LAB PROJECT\DEBUG\PROGRAM_MAIN.OBJ
