^E:\JCCC\SPRING 2018\CS 250 - DATA STRUCTURES IN C++\LAB-RECURSION-INTRO\RECURSIVVE LAB PROJECT\RECURSIVVE LAB PROJECT\DEBUG\PROGRAM_MAIN.OBJ
/OUT:"E:\JCCC\SPRING 2018\CS 250 - DATA STRUCTURES IN C++\LAB-RECURSION-INTRO\RECURSIVVE LAB PROJECT\DEBUG\RECURSIVVE LAB PROJECT.EXE" /INCREMENTAL /NOLOGO KERNEL32.LIB USER32.LIB GDI32.LIB WINSPOOL.LIB COMDLG32.LIB ADVAPI32.LIB SHELL32.LIB OLE32.LIB OLEAUT32.LIB UUID.LIB ODBC32.LIB ODBCCP32.LIB /MANIFEST /MANIFESTUAC:"level='asInvoker' uiAccess='false'" /manifest:embed /DEBUG:FASTLINK /PDB:"E:\JCCC\SPRING 2018\CS 250 - DATA STRUCTURES IN C++\LAB-RECURSION-INTRO\RECURSIVVE LAB PROJECT\DEBUG\RECURSIVVE LAB PROJECT.PDB" /TLBID:1 /DYNAMICBASE /NXCOMPAT /IMPLIB:"E:\JCCC\SPRING 2018\CS 250 - DATA STRUCTURES IN C++\LAB-RECURSION-INTRO\RECURSIVVE LAB PROJECT\DEBUG\RECURSIVVE LAB PROJECT.LIB" /MACHINE:X86 DEBUG\PROGRAM_MAIN.OBJ
^G:\JCCC\SPRING 2018\CS 250 - DATA STRUCTURES IN C++\LAB-RECURSION-INTRO\RECURSIVVE LAB PROJECT\RECURSIVVE LAB PROJECT\DEBUG\PROGRAM_MAIN.OBJ
/OUT:"G:\JCCC\SPRING 2018\CS 250 - DATA STRUCTURES IN C++\LAB-RECURSION-INTRO\RECURSIVVE LAB PROJECT\DEBUG\RECURSIVVE LAB PROJECT.EXE" /INCREMENTAL /NOLOGO KERNEL32.LIB USER32.LIB GDI32.LIB WINSPOOL.LIB COMDLG32.LIB ADVAPI32.LIB SHELL32.LIB OLE32.LIB OLEAUT32.LIB UUID.LIB ODBC32.LIB ODBCCP32.LIB /MANIFEST /MANIFESTUAC:"level='asInvoker' uiAccess='false'" /manifest:embed /DEBUG:FASTLINK /PDB:"G:\JCCC\SPRING 2018\CS 250 - DATA STRUCTURES IN C++\LAB-RECURSION-INTRO\RECURSIVVE LAB PROJECT\DEBUG\RECURSIVVE LAB PROJECT.PDB" /TLBID:1 /DYNAMICBASE /NXCOMPAT /IMPLIB:"G:\JCCC\SPRING 2018\CS 250 - DATA STRUCTURES IN C++\LAB-RECURSION-INTRO\RECURSIVVE LAB PROJECT\DEBUG\RECURSIVVE LAB PROJECT.LIB" /MACHINE:X86 DEBUG\PROGRAM_MAIN.OBJ
